<?xml version="1.0" encoding="utf-8"?>
<!-- Generator: Adobe Illustrator 19.0.0, SVG Export Plug-In . SVG Version: 6.00 Build 0)  -->
<svg version="1.1" id="Layer_1" xmlns="http://www.w3.org/2000/svg" xmlns:xlink="http://www.w3.org/1999/xlink" x="0px" y="0px"
	 width="11px" height="10.5px" viewBox="0 0 11 10.5" style="enable-background:new 0 0 11 10.5;" xml:space="preserve">
<style type="text/css">
	.st0{fill:#0078FF;}
</style>
<g id="XMLID_20_">
	<polyline id="XMLID_29_" class="st0" points="5.5,8 2.1,10.5 3.4,6.5 0,4 4.2,4 5.5,0 	"/>
</g>
</svg>
