<?xml version="1.0" encoding="utf-8"?>
<!-- Generator: Adobe Illustrator 19.0.0, SVG Export Plug-In . SVG Version: 6.00 Build 0)  -->
<svg version="1.1" id="Layer_1" xmlns="http://www.w3.org/2000/svg" xmlns:xlink="http://www.w3.org/1999/xlink" x="0px" y="0px"
	 width="20px" height="30.7px" viewBox="0 0 20 30.7" style="enable-background:new 0 0 20 30.7;" xml:space="preserve">
<style type="text/css">
	.st0{fill:#80D03F;}
	.st1{fill:none;stroke:#0F0F16;stroke-width:0.6305;stroke-miterlimit:10;}
</style>
<g id="Accomplished_tag">
	<polygon id="XMLID_2101_" class="st0" points="0,30.7 10,24.4 20,30.7 20,0 0,0 	"/>
	<g id="XMLID_2117_">
		<polyline id="XMLID_2120_" class="st1" points="5.6,18.7 5.2,20.9 6.9,20 8.2,21.5 8.6,19.1 		"/>
		<polyline id="XMLID_2108_" class="st1" points="14.3,18.7 14.7,20.9 13,20 11.8,21.5 11.3,19.1 		"/>
		<polygon id="XMLID_2114_" class="st1" points="10,5.6 11.5,7.5 13.9,6.9 14.1,9.3 16.3,10.3 15,12.3 16.3,14.4 14.1,15.3 
			13.9,17.7 11.5,17.2 10,19 8.4,17.2 6,17.7 5.8,15.3 3.6,14.4 4.9,12.3 3.6,10.3 5.8,9.3 6,6.9 8.4,7.5 		"/>
	</g>
</g>
</svg>
